lab4
…
2.1

offClean <- offClean %>% 
  pivot_longer(cols = Receiving_REC:Passing_INT, names_to = "stat")
offClean

## # A tibble: 1,560 x 4
##    Name          Opponent_Opponent stat            value
##    <fct>         <fct>             <chr>           <dbl>
##  1 Akers, Landen Louisiana         Receiving_REC       0
##  2 Akers, Landen Louisiana         Receiving_YDS       0
##  3 Akers, Landen Louisiana         Receiving_TD        0
##  4 Akers, Landen Louisiana         Rushing_ATT        NA
##  5 Akers, Landen Louisiana         Rushing_YDS        NA
##  6 Akers, Landen Louisiana         Rushing_TD         NA
##  7 Akers, Landen Louisiana         Passing_CMP-ATT    NA
##  8 Akers, Landen Louisiana         Passing_YDS        NA
##  9 Akers, Landen Louisiana         Passing_TD         NA
## 10 Akers, Landen Louisiana         Passing_INT        NA
## #  with 1,550 more rows
…
2.4

bioClean <- bioClean %>%
  separate(Hometown, c('Hometown_city', 'Hometown_state'), sep = ', ')
bioClean

## # A tibble: 116 x 9
##    Name      Position    Feet Inches Weight Class   Hometown_city Hometown_state
##    <fct>     <fct>      <dbl>  <dbl>  <dbl> <fct>   <chr>         <chr>         
##  1 Akers, L Wide Rece     6      0    191 Redshi Cedar Rapids  Iowa          
##  2 Allen, C Tight End      6      7    240 Redshi Nixa          Mo.           
##  3 Anderson Wide Rece     6      5    208 Redshi Seffner       Fla.          
##  4 Antoine  Defensive     6      0    180 Freshm Ft. Lauderda Fla.          
##  5 Assalley Placekick     6      0    195 Redshi Naperville    Ill.          
##  6 Azunna,  Defensive     6      0    199 Redshi Grand Prairie Texas         
##  7 Bailey,  Defensive     6      3    253 Redshi Clarksdale    Miss.         
##  8 Bailey,  Defensive     6      2    261 Redshi Jacksonville  Fla.          
##  9 Bailey,  Defensive     6      2    288 Redshi Jacksonville  Fla.          
## 10 Bitter,  Wide Rece     6      2    182 Freshm Tampa         Fla.          
## #  with 106 more rows, and 1 more variable: Highschool <fct>

2.5

bioClean %>%
  select(Hometown_state) %>%
  group_by(Hometown_state) %>%
  summarise(count = n())

## # A tibble: 21 x 2
##    Hometown_state count
##  * <chr>          <int>
##  1 Ariz.              4
##  2 Ark.               1
##  3 Australia          1
##  4 Calif.             2
##  5 Fla.              14
##  6 Ga.                3
##  7 Ill.               6
##  8 Iowa              42
##  9 Kan.               4
## 10 Mich               1
## #  with 11 more rows
…
